-------------------------------------------------------------------------------
Test set: kulyndar.maksimov.miasnikova.smarthousebravo.transport.BikeTest
-------------------------------------------------------------------------------
Tests run: 1, Failures: 0, Errors: 0, Skipped: 0, Time elapsed: 0.003 sec
