<svg xmlns="http://www.w3.org/2000/svg" xmlns:xlink="http://www.w3.org/1999/xlink" viewBox="0 0 48 48" version="1.1">
  <g id="surface1">
    <path style=" fill:#2196F3;" d="M 6 10 C 6 7.789063 7.789063 6 10 6 L 38 6 C 40.210938 6 42 7.789063 42 10 L 42 38 C 42 40.210938 40.210938 42 38 42 L 10 42 C 7.789063 42 6 40.210938 6 38 Z "></path>
    <path
      style=" fill:#FFFFFF;"
      d="M 30 32 L 19.316406 32 L 19.316406 29.617188 L 24.234375 24.285156 C 25.449219 22.863281 26.054688 21.734375 26.054688 20.894531 C 26.054688 20.21875 25.910156 19.699219 25.625 19.347656 C 25.335938 18.992188 24.921875 18.816406 24.371094 18.816406 C 23.832031 18.816406 23.394531 19.054688 23.058594 19.527344 C 22.722656 20 22.554688 20.589844 22.554688 21.296875 L 19 21.296875 C 19 20.328125 19.234375 19.4375 19.703125 18.617188 C 20.175781 17.796875 20.824219 17.15625 21.660156 16.691406 C 22.492188 16.230469 23.425781 16 24.457031 16 C 26.109375 16 27.386719 16.394531 28.28125 17.183594 C 29.175781 17.96875 29.621094 19.097656 29.621094 20.574219 C 29.621094 21.195313 29.507813 21.800781 29.285156 22.386719 C 29.058594 22.976563 28.710938 23.59375 28.238281 24.238281 C 27.765625 24.886719 27.003906 25.75 25.949219 26.835938 L 23.972656 29.183594 L 30 29.183594 Z "></path>
  </g>
</svg>
