<svg version="1.1" id="SJ7xxAItey7" xmlns="http://www.w3.org/2000/svg" xmlns:xlink="http://www.w3.org/1999/xlink" x="0px" y="0px" viewBox="0 0 512 512" style="enable-background:new 0 0 512 512;" xml:space="preserve"><style>@-webkit-keyframes BJ9xeCUFekm_Animation {
  0% {
    opacity: 0;
  }
  35% {
    opacity: 0;
  }
  50% {
    opacity: 1;
  }
  100% {
    opacity: 1;
  }
}

@keyframes BJ9xeCUFekm_Animation {
  0% {
    opacity: 0;
  }
  35% {
    opacity: 0;
  }
  50% {
    opacity: 1;
  }
  100% {
    opacity: 1;
  }
}

@-webkit-keyframes HyBggCIKe1m_Animation {
  0% {
    opacity: 0;
  }
  35% {
    opacity: 0;
  }
  50% {
    opacity: 1;
  }
  100% {
    opacity: 1;
  }
}

@keyframes HyBggCIKe1m_Animation {
  0% {
    opacity: 0;
  }
  35% {
    opacity: 0;
  }
  50% {
    opacity: 1;
  }
  100% {
    opacity: 1;
  }
}

@-webkit-keyframes BJ1bgR8KxkQ_Animation {
  0% {
    opacity: 0;
  }
  35% {
    opacity: 0;
  }
  50% {
    opacity: 1;
  }
  100% {
    opacity: 1;
  }
}

@keyframes BJ1bgR8KxkQ_Animation {
  0% {
    opacity: 0;
  }
  35% {
    opacity: 0;
  }
  50% {
    opacity: 1;
  }
  100% {
    opacity: 1;
  }
}

@-webkit-keyframes Hyb-g0IFgyX_Animation {
  0% {
    opacity: 0;
  }
  35% {
    opacity: 0;
  }
  50% {
    opacity: 1;
  }
  100% {
    opacity: 1;
  }
}

@keyframes Hyb-g0IFgyX_Animation {
  0% {
    opacity: 0;
  }
  35% {
    opacity: 0;
  }
  50% {
    opacity: 1;
  }
  100% {
    opacity: 1;
  }
}

@-webkit-keyframes SkRxe0IFxJX_Animation {
  0% {
    opacity: 0;
  }
  35% {
    opacity: 0;
  }
  50% {
    opacity: 1;
  }
  100% {
    opacity: 1;
  }
}

@keyframes SkRxe0IFxJX_Animation {
  0% {
    opacity: 0;
  }
  35% {
    opacity: 0;
  }
  50% {
    opacity: 1;
  }
  100% {
    opacity: 1;
  }
}

@-webkit-keyframes rJTgxRUtxyQ_Animation {
  0% {
    opacity: 0;
  }
  35% {
    opacity: 0;
  }
  50% {
    opacity: 1;
  }
  100% {
    opacity: 1;
  }
}

@keyframes rJTgxRUtxyQ_Animation {
  0% {
    opacity: 0;
  }
  35% {
    opacity: 0;
  }
  50% {
    opacity: 1;
  }
  100% {
    opacity: 1;
  }
}

@-webkit-keyframes SJ7ZlCUFlkX_Animation {
  0% {
    opacity: 0;
  }
  16.67% {
    opacity: 0;
  }
  35% {
    opacity: 1;
  }
  100% {
    opacity: 1;
  }
}

@keyframes SJ7ZlCUFlkX_Animation {
  0% {
    opacity: 0;
  }
  16.67% {
    opacity: 0;
  }
  35% {
    opacity: 1;
  }
  100% {
    opacity: 1;
  }
}

@-webkit-keyframes ryEbx0UFx1Q_Animation {
  0% {
    opacity: 0;
  }
  16.67% {
    opacity: 0;
  }
  35% {
    opacity: 1;
  }
  100% {
    opacity: 1;
  }
}

@keyframes ryEbx0UFx1Q_Animation {
  0% {
    opacity: 0;
  }
  16.67% {
    opacity: 0;
  }
  35% {
    opacity: 1;
  }
  100% {
    opacity: 1;
  }
}

@-webkit-keyframes H1hxgCUKe1X_Animation {
  0% {
    opacity: 0;
  }
  16.67% {
    opacity: 0;
  }
  35% {
    opacity: 1;
  }
  100% {
    opacity: 1;
  }
}

@keyframes H1hxgCUKe1X_Animation {
  0% {
    opacity: 0;
  }
  16.67% {
    opacity: 0;
  }
  35% {
    opacity: 1;
  }
  100% {
    opacity: 1;
  }
}

@-webkit-keyframes ByjelR8KeyQ_Animation {
  0% {
    opacity: 0;
  }
  16.67% {
    opacity: 0;
  }
  35% {
    opacity: 1;
  }
  100% {
    opacity: 1;
  }
}

@keyframes ByjelR8KeyQ_Animation {
  0% {
    opacity: 0;
  }
  16.67% {
    opacity: 0;
  }
  35% {
    opacity: 1;
  }
  100% {
    opacity: 1;
  }
}

@-webkit-keyframes BJM-gC8FlkX_Animation {
  0% {
    opacity: 0;
  }
  16.67% {
    opacity: 0;
  }
  35% {
    opacity: 1;
  }
  100% {
    opacity: 1;
  }
}

@keyframes BJM-gC8FlkX_Animation {
  0% {
    opacity: 0;
  }
  16.67% {
    opacity: 0;
  }
  35% {
    opacity: 1;
  }
  100% {
    opacity: 1;
  }
}

@-webkit-keyframes B1ExxALKxym_Animation {
  0% {
    opacity: 0;
  }
  16.67% {
    opacity: 0;
  }
  35% {
    opacity: 1;
  }
  100% {
    opacity: 1;
  }
}

@keyframes B1ExxALKxym_Animation {
  0% {
    opacity: 0;
  }
  16.67% {
    opacity: 0;
  }
  35% {
    opacity: 1;
  }
  100% {
    opacity: 1;
  }
}

@-webkit-keyframes Sk_xl0LFlkQ_Animation {
  0% {
    opacity: 0;
  }
  16.67% {
    opacity: 1;
  }
  100% {
    opacity: 1;
  }
}

@keyframes Sk_xl0LFlkQ_Animation {
  0% {
    opacity: 0;
  }
  16.67% {
    opacity: 1;
  }
  100% {
    opacity: 1;
  }
}

@-webkit-keyframes B1FexCUYgJX_Animation {
  0% {
    opacity: 0;
  }
  13.33% {
    opacity: 1;
  }
  100% {
    opacity: 1;
  }
}

@keyframes B1FexCUYgJX_Animation {
  0% {
    opacity: 0;
  }
  13.33% {
    opacity: 1;
  }
  100% {
    opacity: 1;
  }
}

@-webkit-keyframes SywxgR8FxJm_Animation {
  0% {
    opacity: 0;
  }
  10% {
    opacity: 1;
  }
  100% {
    opacity: 1;
  }
}

@keyframes SywxgR8FxJm_Animation {
  0% {
    opacity: 0;
  }
  10% {
    opacity: 1;
  }
  100% {
    opacity: 1;
  }
}

#SJ7xxAItey7 * {
  -webkit-animation-duration: 2s;
  animation-duration: 2s;
    animation-iteration-count: infinite;
  -webkit-animation-timing-function: cubic-bezier(0, 0, 1, 1);
  animation-timing-function: cubic-bezier(0, 0, 1, 1);
}

#B1ExxALKxym {
  fill: #F6C958;
  -webkit-animation-name: B1ExxALKxym_Animation;
  animation-name: B1ExxALKxym_Animation;
  -webkit-transform-origin: 50% 50%;
  transform-origin: 50% 50%;
  transform-box: fill-box;
  opacity: 0;
}

#HyBggCIKe1m {
  fill: #EE964B;
  -webkit-animation-name: HyBggCIKe1m_Animation;
  animation-name: HyBggCIKe1m_Animation;
  -webkit-transform-origin: 50% 50%;
  transform-origin: 50% 50%;
  transform-box: fill-box;
  opacity: 0;
}

#SywxgR8FxJm {
  fill: #DCDCDE;
  -webkit-transform-origin: 50% 50%;
  transform-origin: 50% 50%;
  transform-box: fill-box;
  -webkit-animation-name: SywxgR8FxJm_Animation;
  animation-name: SywxgR8FxJm_Animation;
  opacity: 0;
}

#Sk_xl0LFlkQ {
  fill: #DCDCDE;
  -webkit-animation-name: Sk_xl0LFlkQ_Animation;
  animation-name: Sk_xl0LFlkQ_Animation;
  -webkit-transform-origin: 50% 50%;
  transform-origin: 50% 50%;
  transform-box: fill-box;
  opacity: 0;
}

#B1FexCUYgJX {
  fill: #DCDCDE;
  -webkit-animation-name: B1FexCUYgJX_Animation;
  animation-name: B1FexCUYgJX_Animation;
  -webkit-transform-origin: 50% 50%;
  transform-origin: 50% 50%;
  transform-box: fill-box;
  opacity: 0;
}

#BJ9xeCUFekm {
  fill: #DF8D46;
  -webkit-animation-name: BJ9xeCUFekm_Animation;
  animation-name: BJ9xeCUFekm_Animation;
  -webkit-transform-origin: 50% 50%;
  transform-origin: 50% 50%;
  transform-box: fill-box;
  opacity: 0;
}

#ByjelR8KeyQ {
  fill: #EE964B;
  -webkit-animation-name: ByjelR8KeyQ_Animation;
  animation-name: ByjelR8KeyQ_Animation;
  -webkit-transform-origin: 50% 50%;
  transform-origin: 50% 50%;
  transform-box: fill-box;
  opacity: 0;
}

#H1hxgCUKe1X {
  fill: #DF8D46;
  -webkit-animation-name: H1hxgCUKe1X_Animation;
  animation-name: H1hxgCUKe1X_Animation;
  -webkit-transform-origin: 50% 50%;
  transform-origin: 50% 50%;
  transform-box: fill-box;
  opacity: 0;
}

#rJTgxRUtxyQ {
  fill: #EE964B;
  -webkit-animation-name: rJTgxRUtxyQ_Animation;
  animation-name: rJTgxRUtxyQ_Animation;
  -webkit-transform-origin: 50% 50%;
  transform-origin: 50% 50%;
  transform-box: fill-box;
  opacity: 0;
}

#SkRxe0IFxJX {
  fill: #DF8D46;
  -webkit-animation-name: SkRxe0IFxJX_Animation;
  animation-name: SkRxe0IFxJX_Animation;
  -webkit-transform-origin: 50% 50%;
  transform-origin: 50% 50%;
  transform-box: fill-box;
  opacity: 0;
}

#BJ1bgR8KxkQ {
  fill: #F6C958;
  -webkit-animation-name: BJ1bgR8KxkQ_Animation;
  animation-name: BJ1bgR8KxkQ_Animation;
  -webkit-transform-origin: 50% 50%;
  transform-origin: 50% 50%;
  transform-box: fill-box;
  opacity: 0;
}

#Hyb-g0IFgyX {
  fill: #E5BC53;
  -webkit-animation-name: Hyb-g0IFgyX_Animation;
  animation-name: Hyb-g0IFgyX_Animation;
  -webkit-transform-origin: 50% 50%;
  transform-origin: 50% 50%;
  transform-box: fill-box;
  opacity: 0;
}

#BJM-gC8FlkX {
  fill: #E5BC53;
  -webkit-animation-name: BJM-gC8FlkX_Animation;
  animation-name: BJM-gC8FlkX_Animation;
  -webkit-transform-origin: 50% 50%;
  transform-origin: 50% 50%;
  transform-box: fill-box;
  opacity: 0;
}

#SJ7ZlCUFlkX {
  fill: #E5BC53;
  -webkit-animation-name: SJ7ZlCUFlkX_Animation;
  animation-name: SJ7ZlCUFlkX_Animation;
  -webkit-transform-origin: 50% 50%;
  transform-origin: 50% 50%;
  transform-box: fill-box;
  opacity: 0;
}

#ryEbx0UFx1Q {
  fill: #F6C958;
  -webkit-animation-name: ryEbx0UFx1Q_Animation;
  animation-name: ryEbx0UFx1Q_Animation;
  -webkit-transform-origin: 50% 50%;
  transform-origin: 50% 50%;
  transform-box: fill-box;
  opacity: 0;
}

</style>

<polygon points="50.327,139.647 96.071,176.337 152.229,159.455 131.47,214.298 164.881,262.49 &#10;&#9;106.307,259.695 70.797,306.362 55.356,249.791 0,230.441 49.031,198.273 " id="B1ExxALKxym"/>
<polygon points="341.196,11.413 368.709,33.48 402.485,23.327 389.999,56.312 410.094,85.298 374.864,83.616 &#10;&#9;353.507,111.685 344.22,77.66 310.925,66.021 340.415,46.674 " id="HyBggCIKe1m"/>
<g id="HJUglCUKxy7">
	<path d="M219.697,500.227h-35.721c0-86.054-43.221-151.278-68.985-182.499l27.551-22.735&#10;&#9;&#9;C171.357,329.912,219.697,403.006,219.697,500.227z" id="SywxgR8FxJm"/>
	<path d="M318.865,500.227h-35.721c0-97.221,48.339-170.317,77.155-205.234l27.551,22.735&#10;&#9;&#9;C362.086,348.949,318.865,414.173,318.865,500.227z" id="Sk_xl0LFlkQ"/>
	<path d="M269.277,500.587l-35.714-0.719c1.066-52.963,2.679-132.999-11.677-195.893l34.826-7.949&#10;&#9;&#9;C272.046,363.199,270.38,445.877,269.277,500.587z" id="B1FexCUYgJX"/>
</g>
<polygon points="389.999,56.312 402.485,23.327 368.709,33.481 341.196,11.413 374.864,83.616 &#10;&#9;410.094,85.298 " id="BJ9xeCUFekm"/>
<polygon points="269.659,154.131 273.509,189.19 304.573,205.893 272.42,220.389 266.133,255.094 &#10;&#9;242.411,228.994 207.462,233.739 224.954,203.113 209.641,171.341 244.174,178.512 " id="ByjelR8KeyQ"/>
<polygon points="272.42,220.389 304.573,205.893 273.509,189.19 269.659,154.131 242.411,228.994 &#10;&#9;266.133,255.094 " id="H1hxgCUKe1X"/>
<polygon points="142.818,34.637 145.429,58.415 166.498,69.744 144.69,79.576 140.426,103.115 &#10;&#9;124.337,85.412 100.632,88.631 112.496,67.859 102.111,46.309 125.532,51.173 " id="rJTgxRUtxyQ"/>
<polygon points="144.69,79.576 166.498,69.744 145.429,58.415 142.818,34.637 124.337,85.412 &#10;&#9;140.426,103.115 " id="SkRxe0IFxJX"/>
<polygon points="220.64,66.169 239.3,81.136 262.209,74.25 253.741,96.622 267.37,116.282 243.475,115.141 &#10;&#9;228.99,134.178 222.69,111.101 200.109,103.207 220.11,90.085 " id="BJ1bgR8KxkQ"/>
<g id="Skl-lRLtlym">
	<polygon points="253.741,96.622 262.209,74.25 239.3,81.138 220.64,66.169 243.475,115.141 267.37,116.282 &#9;&#10;&#9;&#9;" id="Hyb-g0IFgyX"/>
	<polygon points="131.47,214.298 152.229,159.455 96.071,176.337 50.327,139.647 106.307,259.695 &#10;&#9;&#9;164.881,262.49 &#9;" id="BJM-gC8FlkX"/>
	<polygon points="461.673,139.647 415.929,176.337 359.771,159.455 380.53,214.298 347.119,262.49 &#10;&#9;&#9;405.693,259.695 441.203,306.362 456.644,249.791 512,230.441 462.969,198.273 &#9;" id="SJ7ZlCUFlkX"/>
</g>
<polygon points="380.53,214.298 359.771,159.455 415.929,176.337 461.673,139.647 405.693,259.695 &#10;&#9;347.119,262.49 " id="ryEbx0UFx1Q"/>
<g id="r1HbxRUKlk7">
</g>
<g id="rk8ZxRItxJm">
</g>
<g id="rJD-x0UtxyQ">
</g>
<g id="rkOZxC8Yg1m">
</g>
<g id="rJYZxAUte1X">
</g>
<g id="r19Zg08Fek7">
</g>
<g id="rJjblA8Yxy7">
</g>
<g id="Hyn-gAItl1X">
</g>
<g id="SkaWeCUKeJQ">
</g>
<g id="B10-eRUFgk7">
</g>
<g id="BkkGlAIKlkQ">
</g>
<g id="B1lzeCLYl1X">
</g>
<g id="BkZMgCUtgJQ">
</g>
<g id="rkGfeCIYlyQ">
</g>
<g id="HJ7Ml0LFx1X">
</g>
<script>(function(){var a=document.querySelector('#SJ7xxAItey7'),b=a.querySelectorAll('style'),c=function(d){b.forEach(function(f){var g=f.textContent;g&amp;&amp;(f.textContent=g.replace(/transform-box:[^;\r\n]*/gi,'transform-box: '+d))})};c('initial'),window.requestAnimationFrame(function(){return c('fill-box')})})();</script></svg>
